Data Wrangling Part 1: Basic to Advanced Ways to Select Columns
…
There is another option which avoids the continuous retyping of columns
names: one_of(). You can set up column names upfront, and then refer
to them inside a select() statement. This is particularly useful if
you will have a few pipes with the same columns.

major_cols <- c("name", "order", "sleep_total")

msleep %>%
  select(one_of(major_cols))

## # A tibble: 83 x 3
##    name                       order        sleep_total
##    <chr>                      <chr>              <dbl>
##  1 Cheetah                    Carnivora          12.1 
##  2 Owl monkey                 Primates           17.0 
##  3 Mountain beaver            Rodentia           14.4 
##  4 Greater short-tailed shrew Soricomorpha       14.9 
##  5 Cow                        Artiodactyla        4.00
##  6 Three-toed sloth           Pilosa             14.4 
##  7 Northern fur seal          Carnivora           8.70
##  8 Vesper mouse               Rodentia            7.00
##  9 Dog                        Carnivora          10.1 
## 10 Roe deer                   Artiodactyla        3.00
## # ... with 73 more rows
…
Similarly mean > 500 is not a function in itself, so you will need to
add a tilde upfront, or wrap it insie funs() to turn the statement
into a function.

msleep %>%
  select_if(is.numeric) %>%
  select_if(~mean(., na.rm=TRUE) > 10)

 or shorter:

msleep %>%
  select_if(~is.numeric(.) & mean(., na.rm=TRUE) > 10)

## # A tibble: 83 x 3
##    sleep_total awake   bodywt
##          <dbl> <dbl>    <dbl>
##  1       12.1  11.9   50.0   
##  2       17.0   7.00   0.480 
##  3       14.4   9.60   1.35  
##  4       14.9   9.10   0.0190
##  5        4.00 20.0  600     
##  6       14.4   9.60   3.85  
##  7        8.70 15.3   20.5   
##  8        7.00 17.0    0.0450
##  9       10.1  13.9   14.0   
## 10        3.00 21.0   14.8   
## # ... with 73 more rows

Another useful function for select_if is n_distinct(), which counts
the amount of distinct values that can be found in a column.

To return the columns that have less than 20 distinct answers for
instance you pass ~n_distinct(.) < 20 within the select_if statement.
Given that n_distinct(.) < 20 is not a function, you will need to put
a tilde in front.

msleep %>%
  select_if(~n_distinct(.) < 10)

## # A tibble: 83 x 2
##    vore  conservation
##    <chr> <chr>       
##  1 carni lc          
##  2 omni  <NA>        
##  3 herbi nt          
##  4 omni  lc          
##  5 herbi domesticated
##  6 herbi <NA>        
##  7 carni vu          
##  8 <NA>  <NA>        
##  9 carni domesticated
## 10 herbi lc          
## # ... with 73 more rows
…
Reformatting all column names

The select_all() function allows changes to all columns, and takes a
function as an argument.

To get all column names in uppercase, you can use toupper(), similarly
you could use tolower().

msleep %>%
  select_all(toupper)

## # A tibble: 83 x 11
##    NAME   GENUS VORE  ORDER CONSERVATION SLEEP_TOTAL SLEEP_REM SLEEP_CYCLE
##    <chr>  <chr> <chr> <chr> <chr>              <dbl>     <dbl>       <dbl>
##  1 Cheet~ Acin~ carni Carn~ lc                 12.1     NA          NA    
##  2 Owl m~ Aotus omni  Prim~ <NA>               17.0      1.80       NA    
##  3 Mount~ Aplo~ herbi Rode~ nt                 14.4      2.40       NA    
##  4 Great~ Blar~ omni  Sori~ lc                 14.9      2.30        0.133
##  5 Cow    Bos   herbi Arti~ domesticated        4.00     0.700       0.667
##  6 Three~ Brad~ herbi Pilo~ <NA>               14.4      2.20        0.767
##  7 North~ Call~ carni Carn~ vu                  8.70     1.40        0.383
##  8 Vespe~ Calo~ <NA>  Rode~ <NA>                7.00    NA          NA    
##  9 Dog    Canis carni Carn~ domesticated       10.1      2.90        0.333
## 10 Roe d~ Capr~ herbi Arti~ lc                  3.00    NA          NA    
## # ... with 73 more rows, and 3 more variables: AWAKE <dbl>, BRAINWT <dbl>,
## #   BODYWT <dbl>

You can go further than that by creating functions on the fly: if you
have messy column names coming from excel for instance you can replace
all white spaces with an underscore.

#making an unclean database:
msleep2 <- select(msleep, name, sleep_total, brainwt)
colnames(msleep2) <- c("name", "sleep total", "brain weight")

msleep2 %>%
  select_all(~str_replace(., " ", "_"))

## # A tibble: 83 x 3
##    name                       sleep_total brain_weight
##    <chr>                            <dbl>        <dbl>
##  1 Cheetah                          12.1     NA       
##  2 Owl monkey                       17.0      0.0155  
##  3 Mountain beaver                  14.4     NA       
##  4 Greater short-tailed shrew       14.9      0.000290
##  5 Cow                               4.00     0.423   
##  6 Three-toed sloth                 14.4     NA       
##  7 Northern fur seal                 8.70    NA       
##  8 Vesper mouse                      7.00    NA       
##  9 Dog                              10.1      0.0700  
## 10 Roe deer                          3.00     0.0982  
## # ... with 73 more rows
…
## # A tibble: 3 x 3
##   `Q1 name`       `Q2 sleep total` `Q3 brain weight`
##   <chr>                      <dbl>             <dbl>
## 1 Cheetah                     12.1           NA     
## 2 Owl monkey                  17.0            0.0155
## 3 Mountain beaver             14.4           NA

You can use select_all in combination with str_replace to get rid of
the extra characters.

msleep2 %>%
  select_all(~str_replace(., "Q[0-9]+", "")) %>% 
  select_all(~str_replace(., " ", "_"))      

## # A tibble: 83 x 3
##    `_name`                    `_sleep total` `_brain weight`
##    <chr>                               <dbl>           <dbl>
##  1 Cheetah                             12.1        NA       
##  2 Owl monkey                          17.0         0.0155  
##  3 Mountain beaver                     14.4        NA       
##  4 Greater short-tailed shrew          14.9         0.000290
##  5 Cow                                  4.00        0.423   
##  6 Three-toed sloth                    14.4        NA       
##  7 Northern fur seal                    8.70       NA       
##  8 Vesper mouse                         7.00       NA       
##  9 Dog                                 10.1         0.0700  
## 10 Roe deer                             3.00        0.0982  
## # ... with 73 more rows
…
